"Projetos","Valor a Receber"
"PF22003",729
"PJ22004",1113.75
"PJ22007",4196.38
"PF22009",994.77
"PF22010",589.2
"PF22011",2786.9
"PF22012",1207.416
"PF22013",645.18
"PJ22016",1867.33
"PJ22017",2000
"PF22018",524.0266667
"PF22021",235.23
"PJ22022",359.4166667
"PF22024",540
"PF22025",538
"PF22027",1928.666667
"PJ22030",213.6
"PJ22031",540
"PF22032",322.6666667
"PF22034",1250
"PJ22036",980
"PJ22037",800
"PJ22038",551
"PF22039",2300
"PF22041",1350
"PF22042",1485
